$timescale 1ps $end
$scope module Counter $end
$var wire 1 N0 reset $end
$var wire 1 N1 io_button $end
$var wire 25 N2 delayReg $end
$var wire 8 N3 counterReg $end
$var wire 8 N4 io_leds $end
$upscope $end
$enddefinitions $end
$dumpvars
$end
#0
b1 N1
b0000000000000000000000000 N2
b00000000 N3
b00000000 N4
#1
b0 N1
b0000000000000000000000001 N2
#2
b0000000000000000000000010 N2
#3
b0000000000000000000000011 N2
#4
b0000000000000000000000000 N2
b00000001 N3
#5
b0000000000000000000000001 N2
b00000001 N4
#6
b0000000000000000000000010 N2
#7
b0000000000000000000000011 N2
#8
b0000000000000000000000000 N2
b00000010 N3
#9
b0000000000000000000000001 N2
b00000010 N4
#10
b0000000000000000000000010 N2
